<svg width="247" height="61" viewBox="0 0 247 61" fill="none" xmlns="http://www.w3.org/2000/svg">
<path d="M24.95 43V48H1.9V44.05L16.55 26.3H2.2V21.3H24.55V25.25L9.85 43H24.95Z" fill="#FEFEFE"/>
<g clip-path="url(#clip0)">
<path opacity="0.996" fill-rule="evenodd" clip-rule="evenodd" d="M58.8178 17.789C62.9489 18.5754 69.6828 20.3303 71.8173 24.4043C72.2584 25.2467 71.5463 26.1707 71.0935 26.5914C70.8176 26.8487 70.5582 27.051 70.5183 27.0424C70.4785 27.0339 69.4593 27.8212 69.0338 28.0396C68.6073 28.257 67.932 28.56 67.5308 28.7138C67.1305 28.8677 66.4961 29.069 65.4419 29.3311L64.3246 28.7993C63.7106 28.5068 62.7041 28.0918 62.09 27.8772C61.476 27.6635 60.4044 27.3435 59.7097 27.1668C59.015 26.9902 57.9871 26.7604 57.4265 26.6569C56.8659 26.5534 55.8817 26.4014 55.2405 26.3188C54.5993 26.2362 53.2216 26.1194 52.1801 26.0586C50.7528 25.975 49.8775 25.9741 48.6339 26.0558C47.7255 26.1146 46.3264 26.2533 45.5249 26.3625C44.7233 26.4717 43.4554 26.692 42.7073 26.8506C41.9592 27.0102 40.8449 27.2884 40.2299 27.4698C39.6149 27.6512 38.8395 27.9247 37.8981 28.3558L37.2423 28.1127C36.8818 27.9797 34.825 27.0187 34.7988 27.0234C34.7716 27.0282 32.1834 25.2039 31.9084 24.8222C31.6335 24.4413 31.3323 23.9371 31.239 23.7025C31.1467 23.468 31.125 23.0054 31.125 22.7625C31.125 22.5197 31.1887 22.3067 31.25 22.1553C31.375 21.8469 31.4462 21.6879 31.625 21.4267C32.003 20.8746 32.9622 20.2914 33.125 20.2123C33.625 19.9695 33.5485 20.0077 34.125 19.7266C34.6059 19.492 35.406 19.1527 36.1007 18.9068C36.7954 18.6608 38.1803 18.2317 38.875 18.0826C39.75 17.8391 41.625 17.5957 42.5 17.4739C49.2739 16.5315 57.99 17.6314 58.8178 17.789ZM46.92 23.1527C46.954 23.1907 47.1824 23.2049 47.3028 23.1802C47.5146 23.1375 47.4194 23.0985 47.4194 21.9931C47.4194 21.2733 47.3796 20.5516 47.3028 20.4006C47.2309 20.2572 46.9735 20.374 46.854 20.3759C46.6587 20.3787 46.7772 20.4158 46.8161 21.732C46.8394 22.4765 46.8851 23.1156 46.92 23.1527ZM51.5806 22.7529C51.5777 22.8317 51.5796 22.9703 51.5855 23.0615C51.5923 23.1527 51.6515 23.2296 51.7186 23.2315C51.7856 23.2343 51.8915 23.1812 51.9547 23.1128C52.0285 23.0349 52.081 22.5174 52.1004 21.6845C52.1305 20.4015 52.1276 20.3787 51.9216 20.3787C51.7225 20.3787 51.7089 20.4338 51.6486 21.4946C51.6146 22.1081 51.5835 22.674 51.5806 22.7529ZM42.206 22.373C42.2177 23.5164 42.2517 23.8924 42.343 23.8924C42.41 23.8924 42.5082 23.807 42.5616 23.7025C42.6267 23.5743 42.6588 21.0748 42.6588 20.996C42.6588 20.9086 42.5684 20.8536 42.4246 20.8536H42.1905L42.206 22.373ZM56.3831 22.8735C56.3102 23.3208 56.3121 23.3255 56.5764 23.3246C56.8125 23.3227 56.8436 23.2866 56.8446 23.014C56.8446 22.844 56.8659 22.2885 56.8912 21.7795L56.9388 20.8536C56.4588 20.8536 56.455 20.865 56.4559 21.637C56.4559 22.0682 56.4229 22.6237 56.3831 22.8735ZM61.168 24.2486C61.1942 24.3663 61.2817 24.4622 61.3614 24.4622C61.4682 24.4622 61.5207 24.3169 61.5576 23.9162C61.5848 23.6161 61.6499 23.0283 61.7033 22.6104C61.7558 22.1926 61.7918 21.7804 61.782 21.6959C61.7733 21.6104 61.6625 21.5212 61.5362 21.4974C61.3303 21.4585 61.3614 21.8165 61.2759 22.2296C61.2244 22.4822 61.1428 24.1308 61.168 24.2486ZM38.1575 23.2514C38.1935 23.996 38.2702 24.6541 38.3275 24.7148C38.3849 24.7747 38.4917 24.7965 38.5636 24.7623C38.654 24.7186 38.6783 24.5961 38.6394 24.3673C38.6093 24.1849 38.5558 23.5439 38.5199 22.9428C38.4849 22.3417 38.4461 21.8488 38.4334 21.8469C38.4218 21.845 38.3392 21.8554 38.2517 21.8706C38.1089 21.8953 38.0992 22.0406 38.1575 23.2514ZM65.2078 24.5097C65.1534 25.1365 65.1184 25.656 65.1301 25.6635C65.1407 25.6721 65.236 25.6939 65.3409 25.711C65.4954 25.7386 65.5439 25.673 65.6003 25.3644C65.6382 25.1555 65.6868 24.5525 65.7091 24.0254C65.7451 23.1422 65.7334 23.0625 65.5614 23.0131C65.4235 22.9741 65.3661 23.014 65.3409 23.165C65.3224 23.278 65.2632 23.883 65.2078 24.5097ZM34.689 25.1745C34.7415 25.5923 34.827 26.0415 34.8804 26.1716C34.9533 26.3501 34.9679 26.22 34.9387 25.6493C34.9173 25.2315 34.8367 24.655 34.758 24.3673C34.6463 23.9542 34.6142 23.9048 34.6055 24.1299C34.5996 24.2866 34.6366 24.7566 34.689 25.1745ZM68.9502 24.7946C68.9172 24.8991 68.8482 25.3264 68.7977 25.7443C68.7462 26.1621 68.6588 26.654 68.6034 26.8364C68.548 27.0187 68.5024 27.2647 68.5024 27.3824C68.5024 27.5087 68.5616 27.5961 68.6481 27.5961C68.7452 27.5961 68.8259 27.4375 68.891 27.1213C68.9444 26.8601 68.9881 26.5287 68.9891 26.3853C68.9901 26.2419 69.0406 25.8677 69.1008 25.5543C69.1795 25.1545 69.1824 24.9276 69.1115 24.7946L69.0095 24.6047L68.9502 24.7946Z" fill="#FEFEFE"/>
<path opacity="0.996" fill-rule="evenodd" clip-rule="evenodd" d="M31.1845 23.4974C31.2428 23.6285 31.5566 24.505 31.9064 24.8222C35.1951 27.7993 37.7474 28.3112 38.3352 28.4983C38.923 28.6853 39.9063 28.9626 40.5213 29.1146C41.1363 29.2656 45.0585 29.955 45.9134 30.0576C46.7684 30.1611 54.3495 31.0148 60.1469 30.2675C61.134 30.1402 62.5126 29.9522 63.2073 29.8259C63.9019 29.7005 66.6758 29.0177 66.9964 28.9142C67.317 28.8107 68.0602 28.4992 68.648 28.221C69.2358 27.9437 70.8341 26.8307 71.1304 26.5458C71.5851 26.1108 71.6978 25.9323 71.8464 25.4119C71.9795 24.9428 71.7467 26.5105 71.7765 26.3454L70.5649 33.0711L70.1549 35.467L69.9499 36.4652L69.4057 38.3006L69.1299 38.861C69.1299 38.861 66.9964 43.3468 53.1088 44.4363C52.1742 44.4752 50.3583 44.4239 49.5082 44.3204C44.4746 43.7088 39.0163 42.0108 34.6996 38.179C33.8903 37.4611 33.0179 35.934 32.8576 35.6206C32.6982 35.3073 32.432 34.6881 32.2659 34.2437C32.0278 33.6026 31.1029 23.3189 31.1845 23.4974ZM33.1927 32.8714C33.2141 32.9607 33.5095 33.6511 33.5046 33.483C33.493 33.1183 33.5697 29.9778 33.4862 29.6616C33.4648 29.5818 33.2297 29.578 33.1325 29.5761C33.1257 29.5761 33.1218 32.5704 33.1927 32.8714ZM36.0559 35.2408C36.1317 36.1354 36.1891 36.407 36.3212 36.5038C36.4591 36.6054 36.4941 36.6054 36.5174 36.5038C36.534 36.4364 36.4776 35.5466 36.3931 34.5285C36.293 33.3158 36.1997 32.653 36.122 32.6074C36.0569 32.5685 35.9821 32.5362 35.9549 32.5362C35.9287 32.5352 35.918 32.8866 35.9326 33.3177C35.9471 33.7489 36.0025 34.614 36.0559 35.2408ZM65.7635 34.2171C65.7722 34.2579 65.6284 35.1886 65.4428 36.2854C65.2573 37.3822 65.1154 38.2892 65.1281 38.3006C65.1407 38.311 65.3029 38.2474 65.4905 38.1581L65.8305 37.9948C66.3114 35.1249 66.4533 34.2161 66.4562 34.1249C66.4591 34.0338 66.4076 33.9616 66.3406 33.9645C66.2735 33.9683 66.1132 34.0091 65.983 34.0566C65.8528 34.1041 65.7537 34.1762 65.7635 34.2171ZM42.0019 37.3025C42.1175 38.7982 42.137 38.895 42.3429 38.9881C42.4634 39.0422 42.6383 39.0878 42.7316 39.0878C42.8822 39.0897 42.8938 39.0261 42.8316 38.5418C42.7937 38.2407 42.7286 37.3006 42.6859 36.4525L42.6101 34.9094C42.1583 34.7593 41.9941 34.7156 41.9543 34.7166C41.9145 34.7175 41.8805 34.9426 41.8805 35.217C41.8795 35.4915 41.9339 36.4297 42.0019 37.3025ZM58.7828 35.7394C58.7818 35.7783 58.6992 36.708 58.6001 37.8048C58.501 38.9017 58.4476 39.8333 58.4816 39.8741C58.5156 39.9159 58.706 39.9159 58.9042 39.8741C59.2064 39.8115 59.2734 39.7526 59.3142 39.5142C59.3414 39.3575 59.4366 38.4819 59.527 37.5674C59.6173 36.6539 59.663 35.8305 59.628 35.7394C59.5931 35.6482 59.4872 35.5789 59.3939 35.5865C59.3006 35.5931 59.1257 35.6149 59.0053 35.6339C58.8848 35.6529 58.7847 35.7004 58.7828 35.7394ZM50.1883 40.179L51.0627 40.236C51.1803 36.953 51.2017 35.9901 51.1871 35.9777C51.1725 35.9663 50.9218 35.9188 50.6314 35.8733L50.1019 35.7906L50.1883 40.179Z" fill="#44B341"/>
</g>
<path d="M105.2 34.8C105.2 35.2333 105.167 35.85 105.1 36.65H84.15C84.5167 38.6167 85.4667 40.1833 87 41.35C88.5667 42.4833 90.5 43.05 92.8 43.05C95.7333 43.05 98.15 42.0833 100.05 40.15L103.4 44C102.2 45.4333 100.683 46.5167 98.85 47.25C97.0167 47.9833 94.95 48.35 92.65 48.35C89.7167 48.35 87.1333 47.7667 84.9 46.6C82.6667 45.4333 80.9333 43.8167 79.7 41.75C78.5 39.65 77.9 37.2833 77.9 34.65C77.9 32.05 78.4833 29.7167 79.65 27.65C80.85 25.55 82.5 23.9167 84.6 22.75C86.7 21.5833 89.0667 21 91.7 21C94.3 21 96.6167 21.5833 98.65 22.75C100.717 23.8833 102.317 25.5 103.45 27.6C104.617 29.6667 105.2 32.0667 105.2 34.8ZM91.7 26C89.7 26 88 26.6 86.6 27.8C85.2333 28.9667 84.4 30.5333 84.1 32.5H99.25C98.9833 30.5667 98.1667 29 96.8 27.8C95.4333 26.6 93.7333 26 91.7 26ZM127.254 46.55C126.52 47.15 125.62 47.6 124.554 47.9C123.52 48.2 122.42 48.35 121.254 48.35C118.32 48.35 116.054 47.5833 114.454 46.05C112.854 44.5167 112.054 42.2833 112.054 39.35V26.5H107.654V21.5H112.054V15.4H118.304V21.5H125.454V26.5H118.304V39.2C118.304 40.5 118.62 41.5 119.254 42.2C119.887 42.8667 120.804 43.2 122.004 43.2C123.404 43.2 124.57 42.8333 125.504 42.1L127.254 46.55ZM138.345 25.2C140.145 22.4 143.312 21 147.845 21V26.95C147.312 26.85 146.828 26.8 146.395 26.8C143.962 26.8 142.062 27.5167 140.695 28.95C139.328 30.35 138.645 32.3833 138.645 35.05V48H132.395V21.3H138.345V25.2ZM164.903 48.35C162.203 48.35 159.769 47.7667 157.603 46.6C155.436 45.4333 153.736 43.8167 152.503 41.75C151.303 39.65 150.703 37.2833 150.703 34.65C150.703 32.0167 151.303 29.6667 152.503 27.6C153.736 25.5333 155.436 23.9167 157.603 22.75C159.769 21.5833 162.203 21 164.903 21C167.636 21 170.086 21.5833 172.253 22.75C174.419 23.9167 176.103 25.5333 177.303 27.6C178.536 29.6667 179.153 32.0167 179.153 34.65C179.153 37.2833 178.536 39.65 177.303 41.75C176.103 43.8167 174.419 45.4333 172.253 46.6C170.086 47.7667 167.636 48.35 164.903 48.35ZM164.903 43C167.203 43 169.103 42.2333 170.603 40.7C172.103 39.1667 172.853 37.15 172.853 34.65C172.853 32.15 172.103 30.1333 170.603 28.6C169.103 27.0667 167.203 26.3 164.903 26.3C162.603 26.3 160.703 27.0667 159.203 28.6C157.736 30.1333 157.003 32.15 157.003 34.65C157.003 37.15 157.736 39.1667 159.203 40.7C160.703 42.2333 162.603 43 164.903 43ZM199.929 21C202.529 21 204.846 21.5667 206.879 22.7C208.946 23.8333 210.563 25.4333 211.729 27.5C212.896 29.5667 213.479 31.95 213.479 34.65C213.479 37.35 212.896 39.75 211.729 41.85C210.563 43.9167 208.946 45.5167 206.879 46.65C204.846 47.7833 202.529 48.35 199.929 48.35C196.329 48.35 193.479 47.15 191.379 44.75V57.7H185.129V21.3H191.079V24.8C192.113 23.5333 193.379 22.5833 194.879 21.95C196.413 21.3167 198.096 21 199.929 21ZM199.229 43C201.529 43 203.413 42.2333 204.879 40.7C206.379 39.1667 207.129 37.15 207.129 34.65C207.129 32.15 206.379 30.1333 204.879 28.6C203.413 27.0667 201.529 26.3 199.229 26.3C197.729 26.3 196.379 26.65 195.179 27.35C193.979 28.0167 193.029 28.9833 192.329 30.25C191.629 31.5167 191.279 32.9833 191.279 34.65C191.279 36.3167 191.629 37.7833 192.329 39.05C193.029 40.3167 193.979 41.3 195.179 42C196.379 42.6667 197.729 43 199.229 43ZM244.507 34.8C244.507 35.2333 244.473 35.85 244.407 36.65H223.457C223.823 38.6167 224.773 40.1833 226.307 41.35C227.873 42.4833 229.807 43.05 232.107 43.05C235.04 43.05 237.457 42.0833 239.357 40.15L242.707 44C241.507 45.4333 239.99 46.5167 238.157 47.25C236.323 47.9833 234.257 48.35 231.957 48.35C229.023 48.35 226.44 47.7667 224.207 46.6C221.973 45.4333 220.24 43.8167 219.007 41.75C217.807 39.65 217.207 37.2833 217.207 34.65C217.207 32.05 217.79 29.7167 218.957 27.65C220.157 25.55 221.807 23.9167 223.907 22.75C226.007 21.5833 228.373 21 231.007 21C233.607 21 235.923 21.5833 237.957 22.75C240.023 23.8833 241.623 25.5 242.757 27.6C243.923 29.6667 244.507 32.0667 244.507 34.8ZM231.007 26C229.007 26 227.307 26.6 225.907 27.8C224.54 28.9667 223.707 30.5333 223.407 32.5H238.557C238.29 30.5667 237.473 29 236.107 27.8C234.74 26.6 233.04 26 231.007 26Z" fill="#FEFEFE"/>
<defs>
<clipPath id="clip0">
<rect width="41" height="28" fill="white" transform="translate(31 16.5)"/>
</clipPath>
</defs>
</svg>
