<svg width="100" height="71" viewBox="0 0 100 71" fill="none" xmlns="http://www.w3.org/2000/svg">
<path opacity="0.996" fill-rule="evenodd" clip-rule="evenodd" d="M67.8483 3.2282C77.9242 5.1974 94.3484 9.59243 99.5545 19.7952C100.63 21.9047 98.8934 24.2188 97.7891 25.2723C97.1161 25.9168 96.4834 26.4234 96.3863 26.402C96.2891 26.3806 93.8033 28.3522 92.7654 28.8992C91.7251 29.4438 90.0782 30.2025 89.0995 30.5877C88.1232 30.973 86.5759 31.4772 84.0048 32.1336L81.2796 30.8018C79.782 30.0693 77.327 29.03 75.8294 28.4925C74.3318 27.9574 71.718 27.1559 70.0237 26.7136C68.3294 26.2712 65.8223 25.6957 64.455 25.4364C63.0877 25.1772 60.6872 24.7967 59.1232 24.5898C57.5592 24.3829 54.1991 24.0903 51.6588 23.9381C48.1777 23.7288 46.0427 23.7265 43.0095 23.931C40.7938 24.0784 37.3816 24.4257 35.4266 24.6992C33.4716 24.9727 30.3792 25.5244 28.5545 25.9216C26.7299 26.3211 24.0119 27.018 22.5119 27.4722C21.0119 27.9265 19.1209 28.6114 16.8247 29.6911L15.2252 29.0823C14.346 28.7493 9.32943 26.3425 9.26545 26.3544C9.1991 26.3663 2.8863 21.7977 2.21569 20.8416C1.54507 19.8879 0.810475 18.6251 0.582987 18.0376C0.357868 17.4502 0.304931 16.2918 0.304932 15.6836C0.304932 15.0753 0.460241 14.5419 0.609815 14.163C0.914693 13.3905 1.08843 12.9923 1.52445 12.3382C2.4463 10.9555 4.78579 9.4951 5.18298 9.297C6.40249 8.68876 6.21601 8.78463 7.622 8.08051C8.79499 7.49308 10.7465 6.64339 12.4408 6.02742C14.1351 5.41145 17.5131 4.3368 19.2074 3.96341C21.3415 3.35365 25.9147 2.7439 28.0488 2.43902C44.5705 0.0787937 65.8294 2.83341 67.8483 3.2282ZM38.8294 16.6606C38.9123 16.7558 39.4692 16.7914 39.763 16.7296C40.2796 16.6226 40.0474 16.5251 40.0474 13.7568C40.0474 11.9541 39.9502 10.1466 39.763 9.76842C39.5877 9.40931 38.9597 9.70183 38.6683 9.70659C38.192 9.71372 38.4811 9.80648 38.5759 13.1028C38.6327 14.9673 38.7441 16.5679 38.8294 16.6606ZM50.1967 15.6594C50.1896 15.8568 50.1943 16.204 50.2085 16.4323C50.2251 16.6606 50.3697 16.8533 50.5332 16.858C50.6967 16.8652 50.955 16.732 51.109 16.5607C51.2891 16.3657 51.4171 15.0696 51.4645 12.9838C51.5379 9.77081 51.5308 9.71372 51.0284 9.71372C50.5427 9.71372 50.5095 9.85167 50.3626 12.5082C50.2796 14.0445 50.2038 15.462 50.1967 15.6594ZM27.3318 14.7081C27.3602 17.5715 27.4432 18.5133 27.6659 18.5133C27.8294 18.5133 28.0688 18.2993 28.1991 18.0376C28.3579 17.7166 28.4361 11.457 28.4361 11.2596C28.4361 11.0408 28.2157 10.9029 27.865 10.9029H27.2939L27.3318 14.7081ZM61.91 15.9614C61.7322 17.0816 61.737 17.0935 62.3815 17.0911C62.9574 17.0863 63.0332 16.996 63.0356 16.3134C63.0356 15.8877 63.0877 14.4964 63.1493 13.2217L63.2654 10.9029C62.0948 10.9029 62.0853 10.9314 62.0877 12.8649C62.0877 13.9447 62.0071 15.3359 61.91 15.9614ZM73.5806 19.4052C73.6446 19.7001 73.8578 19.9403 74.0521 19.9403C74.3128 19.9403 74.4408 19.5764 74.5308 18.5728C74.5972 17.8212 74.7559 16.3491 74.8863 15.3026C75.0142 14.2562 75.1019 13.224 75.0782 13.0124C75.0569 12.7983 74.7867 12.5748 74.4787 12.5153C73.9763 12.4178 74.0521 13.3144 73.8436 14.349C73.718 14.9816 73.519 19.1102 73.5806 19.4052ZM17.4574 16.908C17.5451 18.7725 17.7323 20.4207 17.8721 20.5729C18.0119 20.7227 18.2726 20.7774 18.4479 20.6918C18.6683 20.5824 18.7275 20.2756 18.6327 19.7024C18.5593 19.2458 18.429 17.6405 18.3413 16.135C18.256 14.6296 18.1612 13.3953 18.1304 13.3905C18.1019 13.3858 17.9005 13.4119 17.6872 13.45C17.3389 13.5118 17.3152 13.8757 17.4574 16.908ZM83.4337 20.0592C83.301 21.6288 83.2157 22.9297 83.2441 22.9488C83.2702 22.9702 83.5024 23.0249 83.7583 23.0677C84.1351 23.1366 84.2536 22.9725 84.391 22.1996C84.4834 21.6764 84.6019 20.1662 84.6564 18.8463C84.7441 16.6345 84.7157 16.4347 84.2962 16.311C83.9597 16.2135 83.8199 16.3134 83.7583 16.6916C83.7133 16.9746 83.5687 18.4895 83.4337 20.0592ZM8.99768 21.724C9.12564 22.7704 9.33417 23.8953 9.4645 24.2211C9.64223 24.6682 9.67777 24.3424 9.60668 22.9131C9.55455 21.8667 9.35787 20.423 9.16592 19.7024C8.89341 18.6679 8.81521 18.5442 8.79389 19.1079C8.77967 19.5003 8.86971 20.6775 8.99768 21.724ZM92.5616 20.7726C92.4811 21.0343 92.3128 22.1045 92.1896 23.1509C92.064 24.1974 91.8507 25.4293 91.7157 25.8859C91.5806 26.3425 91.4692 26.9585 91.4692 27.2534C91.4692 27.5697 91.6138 27.7885 91.8247 27.7885C92.0616 27.7885 92.2583 27.3914 92.4171 26.5994C92.5474 25.9454 92.654 25.1154 92.6564 24.7562C92.6588 24.3971 92.782 23.4601 92.9289 22.6753C93.1209 21.674 93.128 21.1056 92.955 20.7726L92.7062 20.297L92.5616 20.7726Z" fill="#302E39"/>
<path opacity="0.996" fill-rule="evenodd" clip-rule="evenodd" d="M0.450261 17.524C0.592441 17.8522 1.35784 20.0473 2.21092 20.8416C10.2323 28.2975 16.4574 29.5794 17.891 30.0479C19.3247 30.5164 21.7228 31.2109 23.2228 31.5914C24.7228 31.9695 34.2891 33.6962 36.3744 33.953C38.4597 34.2122 56.9503 36.3503 71.0901 34.4786C73.4977 34.1599 76.8602 33.689 78.5545 33.3727C80.2488 33.0588 87.0143 31.3488 87.7962 31.0896C88.5782 30.8303 90.391 30.0503 91.8247 29.3534C93.2583 28.659 97.1564 25.8717 97.8792 25.1582C98.9882 24.0689 99.2631 23.6218 99.6256 22.3185C99.9503 21.1437 99.3825 25.0697 99.455 24.6564L96.5001 41.5L95.5001 47.5L95.0001 50L93.6727 54.5963L93.0001 56C93.0001 56 87.7962 67.2339 53.9242 69.9623C51.6446 70.0598 47.2157 69.9314 45.1422 69.6722C32.865 68.1406 19.5522 63.8882 9.02372 54.2919C7.04979 52.494 4.92183 48.6697 4.53083 47.8849C4.1422 47.1001 3.49292 45.5494 3.0877 44.4364C2.50713 42.8311 0.251209 17.0768 0.450261 17.524ZM5.34837 40.9998C5.4005 41.2234 6.12088 42.9524 6.10903 42.5314C6.08059 41.6182 6.2678 33.7532 6.06401 32.9613C6.01187 32.7615 5.43841 32.752 5.20145 32.7472C5.18486 32.7472 5.17538 40.2459 5.34837 40.9998ZM12.3318 46.9336C12.5166 49.1739 12.6564 49.8541 12.9787 50.0967C13.3152 50.3511 13.4005 50.3511 13.4574 50.0967C13.4977 49.9278 13.3602 47.6994 13.1541 45.1499C12.91 42.1128 12.6825 40.4528 12.4929 40.3386C12.3341 40.2411 12.1517 40.1603 12.0853 40.1603C12.0214 40.1579 11.9953 41.0379 12.0308 42.1176C12.0664 43.1973 12.2014 45.3639 12.3318 46.9336ZM84.7891 44.3698C84.8105 44.4721 84.4598 46.8028 84.0071 49.5497C83.5545 52.2966 83.2086 54.5678 83.2394 54.5963C83.2702 54.6225 83.6659 54.4632 84.1233 54.2396L84.9526 53.8305C86.1256 46.6434 86.4716 44.3674 86.4787 44.1391C86.4858 43.9108 86.3602 43.7301 86.1967 43.7372C86.0332 43.7467 85.6422 43.849 85.3247 43.9679C85.0071 44.0868 84.7654 44.2675 84.7891 44.3698ZM26.8341 52.0968C27.1161 55.8426 27.1635 56.0851 27.6659 56.3182C27.9597 56.4538 28.3863 56.5679 28.6138 56.5679C28.9811 56.5727 29.0095 56.4133 28.8578 55.2004C28.7654 54.4465 28.6067 52.092 28.5024 49.9682L28.3176 46.1036C27.2157 45.7278 26.8152 45.6184 26.718 45.6208C26.6209 45.6231 26.5379 46.1868 26.5379 46.8741C26.5356 47.5614 26.6683 49.9112 26.8341 52.0968ZM67.7631 48.1822C67.7607 48.2797 67.5593 50.608 67.3176 53.3549C67.0759 56.1018 66.9455 58.4349 67.0285 58.5371C67.1114 58.6418 67.5759 58.6418 68.0593 58.5371C68.7962 58.3802 68.9597 58.2327 69.0593 57.6358C69.1256 57.2434 69.3579 55.0506 69.5782 52.7603C69.7986 50.4724 69.91 48.4105 69.8247 48.1822C69.7394 47.9539 69.4811 47.7802 69.2536 47.7993C69.0261 47.8159 68.5996 47.8706 68.3057 47.9182C68.0119 47.9657 67.7678 48.0847 67.7631 48.1822ZM46.801 59.3006L48.9337 59.4432C49.2204 51.2216 49.2725 48.81 49.237 48.7791C49.2015 48.7506 48.5901 48.6317 47.8815 48.5175L46.5901 48.3106L46.801 59.3006Z" fill="#44B341"/>
</svg>
